(2),	James Arthur - 'Say You Won't Let Go' (Syco),	1,	(1)
(1),	Chainsmokers featuring Halsey - 'Closer' (Disruptor),	3,	(2)
(new),	The Weeknd featuring Daft Punk - 'Starboy' (XO/Republic),	2,	(5)
(5),	Calvin Harris - 'My Way' (Columbia),	5,	(3)
(3),	DJ Snake featuring Justin Bieber - 'Let Me Love You' (Interscope),	10,	(8)
(6),	Ariana Grande featuring Nicki Minaj - 'Side To Side' (Republic),	7,	(6)
(4),	Major Lazer featuring Justin Bieber & MØ - 'Cold Water' (Because),	12,	(13)
(7),	SIA featuring Kendrick Lamar - 'The Greatest' (Monkey Puzzle/RCA),	8,	(7)
(10),	Martin Garrix & Bebe Rexha - 'In The Name Of Love' (Columiba),	11,	(9)
(8),	Calum Scott - 'Dancing On My Own' (Instrumental),	9,	(10)
(12),	Ellie Goulding - 'Still Falling For You' (Polydor),	6,	(4)
(9),	TwentyOne Pilots - 'Heathens' (Atlantic),	26,	(25)
(13),	Shawn Mendes - 'Treat You Better' (EMI),	16,	(23)
(11),	Chainsmokers featuring Daya - 'Don't Let Me Down' (Distruptor),	22,	(17)
(15),	Lil Wayne, Wiz Khalifa & Imagine Dragons with Logic, Ty Dolla $ign & X Ambassadors - 'Sucker For Pain' (Atlantic),	27,	(30)
(16),	Jonas Blue featuring JP Cooper - 'Perfect Strangers' (Positiva),	23,	(21)
(14),	Drake featuring Wizkid & Kyla - 'One Dance' (Cash Money/Republic),	36,	(31)
(19),	Anne-Marie - 'Alarm' (Asylum/Major Tom's),	24,	(22)
(17),	Drake featuring Rihanna - 'Too Good' (Cash Money/Republic),	39,	(40)
(20),	Calvin Harris // Rihanna - 'This Is What You Came For' (Columbia),	20,	(14)
(21),	Kungs vs Cookin' On 3 Burners - 'This Girl' (3Beat),	13,	(16)
(22),	Emeli Sandé - 'Hurts' (Virgin),	18,	(12)
(26),	Zara Larsson - 'Ain't My Fault' (Black Butter/Epic),	25,	(24)
(24),	Bob Marley featuring LVNDSCAPE + Bolier - 'Is This Love (Remix)' (Island),	19,	(18)
(25),	Digital Farm Animals & Cash Cash featuring Nelly - 'Millionaire' (Syco),	31,	(27)
(18),	Olly Murs - 'You Don't Know Love' (RCA),	14,	(11)
(29),	Justin Timberlake - 'Can't Stop The Feeling' (RCA),	17,	(15)
(33),	Matoma & Becky Hill - 'False Alarm' (Parlophone),	34, (32)
(27),	Charlie Puth featuring Selena Gomez - 'We Don't Talk Anymore' (Atlantic),	40,	(re)
(30),	SIA - 'Cheap Thrills' (Monkey Puzzle/RCA),	30,	(34)
(23),	Bastille - 'Good Grief' (Virgin),	38,	(28)
(36),	offaiah - 'Trouble' (Positiva),	15,	(20)
(31),	Ariana Grande - 'Into You' (Republic),	35,	(36)
(32),	MØ - 'Final Song' (Chess Club/RCA Victor),	(new), (new)
(34),	Clean Bandit featuring Louisa Johnson - 'Tears' (Atlantic),	32,	(26)
(38),	Cheat Codes & Dante Klein - 'Let Me Hold You (Turn Me On)' (Spinnin'),	 (new), (new)
(40),	Hailee Steinfeld featuring Zedd & Grey - 'Starving' (Republic),	 (new), (new)
(new),	Dua Lipa - 'Blow Your Mind (Mwah)' (Warner Bros),	21,	(35)
(re),	Craig David & Sigala - 'Ain't Giving Up' (Speakerbox),	29,	(39)
(35),	Kent Jones - 'Don't Mind' (Black Butter/Epic), (new), (new)